%YAML 1.1
%TAG !u! tag:unity3d.com,2011:
--- !u!1045 &1
EditorBuildSettings:
  m_ObjectHideFlags: 0
  serializedVersion: 2
  m_Scenes:
  - enabled: 1
    path: Assets/example_vr_volume_render_scene.unity
    guid: 12fd2c6f5abfa4041b96b972e2e7bd85
  m_configObjects: {}
